Parker Barnes - Decline of Big Tech Stock
…
One approach would be to make a separate tibble containing just the max price dates, join it back with the original, and filter the dates.

peak_price_dates <- 
  big_tech_stock_prices |> 
  slice_max(adj_close, by = stock_symbol) |> 
  select(stock_symbol, peak_date = date, peak_price = adj_close)

big_tech_stock_prices |> 
  inner_join(peak_price_dates) |> 
  filter(date >= peak_date) |> 
  # for demonstration purposes
  slice_min(date, n = 3, by = stock_symbol) |> 
  select(stock_symbol, date, adj_close)

# A tibble: 42 × 3
   stock_symbol date       adj_close
   <chr>        <date>         <dbl>
 1 AAPL         2022-01-03      181.
 2 AAPL         2022-01-04      179.
 3 AAPL         2022-01-05      174.
 4 ADBE         2021-11-19      688.
 5 ADBE         2021-11-22      674.
 6 ADBE         2021-11-23      665.
 7 AMZN         2021-07-08      187.
 8 AMZN         2021-07-09      186.
 9 AMZN         2021-07-12      186.
10 CRM          2021-11-08      310.
# … with 32 more rows
…
